{
  "forge:condition": {
    "type": "fancy_battleaxes:material_enabled",
    "material": "amethyst"
  },
  "type": "minecraft:crafting_shaped",
  "pattern": [
    "MSM",
    "MSM",
    " S "
  ],
  "key": {
    "S": {
      "item": "minecraft:stick"
    },
    "M": {
      "tag": "forge:gems/amethyst"
    }
  },
  "result": {
    "item": "fancy_battleaxes:amethyst_battleaxe"
  }
}
